…
``` r
data
```

    ## # A tibble: 3,352 × 4
    ##    filename                             date                Temperature Salinity
    ##    <chr>                                <dttm>                    <dbl>    <dbl>
    ##  1 /Users/micachapuis/GitHub/OCN 682/C… 2021-01-15 08:24:40        23.3     34.8
    ##  2 /Users/micachapuis/GitHub/OCN 682/C… 2021-01-15 08:24:50        23.3     34.6
    ##  3 /Users/micachapuis/GitHub/OCN 682/C… 2021-01-15 08:25:00        23.3     34.9
    ##  4 /Users/micachapuis/GitHub/OCN 682/C… 2021-01-15 08:25:10        23.3     34.7
    ##  5 /Users/micachapuis/GitHub/OCN 682/C… 2021-01-15 08:25:20        23.3     34.5
    ##  6 /Users/micachapuis/GitHub/OCN 682/C… 2021-01-15 08:25:30        23.3     34.4
    ##  7 /Users/micachapuis/GitHub/OCN 682/C… 2021-01-15 08:25:40        23.3     34.3
    ##  8 /Users/micachapuis/GitHub/OCN 682/C… 2021-01-15 08:25:50        23.3     34.3
    ##  9 /Users/micachapuis/GitHub/OCN 682/C… 2021-01-15 08:26:00        23.3     34.2
    ## 10 /Users/micachapuis/GitHub/OCN 682/C… 2021-01-15 08:26:10        23.3     34.1
    ## # ℹ 3,342 more rows
…
