…
    ## # A tibble: 1 × 12
    ##   r.squared adj.r.squared sigma statistic   p.value    df logLik   AIC   BIC
    ##       <dbl>         <dbl> <dbl>     <dbl>     <dbl> <dbl>  <dbl> <dbl> <dbl>
    ## 1     0.802         0.799  2.44      273. 5.69e-116     5  -788. 1590. 1617.
    ## # ℹ 3 more variables: deviance <dbl>, df.residual <int>, nobs <int>

**augment** add residuals and predicted values to your original data,
and requires that you put both the model and data

``` r
resid_fitted <- augment(Peng_mod)
resid_fitted
```

    ## # A tibble: 342 × 10
    ##    .rownames bill_length_mm bill_depth_mm species .fitted   .resid    .hat
    ##    <chr>              <dbl>         <dbl> <fct>     <dbl>    <dbl>   <dbl>
    ##  1 1                   39.1          18.7 Adelie     39.1  0.00553 0.00719
    ##  2 2                   39.5          17.4 Adelie     38.0  1.52    0.0107 
    ##  3 3                   40.3          18   Adelie     38.5  1.81    0.00716
    ##  4 5                   36.7          19.3 Adelie     39.6 -2.91    0.0107 
    ##  5 6                   39.3          20.6 Adelie     40.7 -1.42    0.0295 
    ##  6 7                   38.9          17.8 Adelie     38.3  0.577   0.00797
    ##  7 8                   39.2          19.6 Adelie     39.9 -0.666   0.0137 
    ##  8 9                   34.1          18.1 Adelie     38.6 -4.48    0.00690
    ##  9 10                  42            20.2 Adelie     40.4  1.62    0.0221 
    ## 10 11                  37.8          17.1 Adelie     37.7  0.0768  0.0136 
    ## # ℹ 332 more rows
    ## # ℹ 3 more variables: .sigma <dbl>, .cooksd <dbl>, .std.resid <dbl>
…
